%YAML 1.1
%TAG !u! tag:unity3d.com,2011:
--- !u!162 &1
EditorUserSettings:
  m_ObjectHideFlags: 0
  serializedVersion: 4
  m_ConfigSettings:
    RecentlyUsedScenePath-0:
      value: 22424703114646680e0b0227036c6c111b07142f1f2b233e2867083debf42d
      flags: 0
    RecentlyUsedScenePath-1:
      value: 224247031146466f05071e2620224d040f582d26383a273c28280d7cd6f2353be9ee38eea81f273d3412e33917712230e00f492eee0a071b1d0bee4139fe1e1751f517d60e852f0ec41a19ddde18c2a39de0e6a396fee9d1cac6
      flags: 0
    RecentlyUsedScenePath-2:
      value: 224247031146466f05071e2620224d040f582d26383a273c28280d7cd6f2353be9ee38eea81f273d3412e33917712831e60f1b0af51f03041f4ed80016f61e1651e000c417d81319d8564f808d34dff7d0c4d5e9cce2e8d69efca1fef8f2effbfee2ead2a4bcf9d2abaceab8a0cc87e7c0c6bbc6cdc5c2d4f4c7dfdaaaca
      flags: 0
    RecentlyUsedScenePath-3:
      value: 224247031146466f05071e2620224d040f582d26383a273c28280d7cd6f2353be9ee38eea81f273d3412e33917712230e00f492eee0a071b1d0bee4132fe000004c91d8532c91118d85954eac80edaf7dac69da4cde5eeccc7
      flags: 0
    RecentlyUsedScenePath-4:
      value: 224247031146466b040f022d5e365119020e
      flags: 0
    RecentlyUsedScenePath-5:
      value: 224247031146467d0c1d180411285a231d1e1665082d2b3f622f1c20f6e63533e7f43de0e905373d3706a1290a371526
      flags: 0
    RecentlyUsedScenePath-6:
      value: 224247031146467d0c1d180411285a231d1e1665082d2b3f622f1c20f6e63533e7f43de0e905293d2b0bee280d310f2cbc1f0702e212
      flags: 0
    RecentlyUsedScenePath-7:
      value: 224247031146467d0c1d180411285a231d1e1665082d2b3f622f1c20f6e63533e7f43de0e9053b39340da1290a371526
      flags: 0
    vcSharedLogLevel:
      value: 0d5e400f0650
      flags: 0
  m_VCAutomaticAdd: 1
  m_VCDebugCom: 0
  m_VCDebugCmd: 0
  m_VCDebugOut: 0
  m_SemanticMergeMode: 2
  m_VCShowFailedCheckout: 1
  m_VCOverwriteFailedCheckoutAssets: 1
  m_VCProjectOverlayIcons: 1
  m_VCHierarchyOverlayIcons: 1
  m_VCOtherOverlayIcons: 1
  m_VCAllowAsyncUpdate: 1
